#data
<!DOCTYPE a SYSTEM "http://a/"><a>&x;&y;</a>
#resource http://a/
<![[
  <!ENTITY x "X">
]]>
  <!ENTITY y "Y">
#errors
1;1;no XML decl;;;s
[1]1;1;no XML decl;;;s
1;35;entity not declared;;&x;;m
[1]1;4;ms:no status keyword;;;m
[1]4;3;xml:dtd:ext decl;;;w
#document
| <!DOCTYPE a "" "http://a/">
| <{} a>
|   "&x;Y"

#data
<!DOCTYPE a SYSTEM "http://a/"><a>&x;&y;</a>
#resource http://a/
<![INCLUDE[
  <!ENTITY x "X">
]]>
  <!ENTITY y "Y">
#errors
1;1;no XML decl;;;s
[1]1;1;no XML decl;;;s
[1]2;3;xml:dtd:ext decl;;;w
[1]4;3;xml:dtd:ext decl;;;w
#document
| <!DOCTYPE a "" "http://a/">
| <{} a>
|   "XY"

#data
<!DOCTYPE a SYSTEM "http://a/"><a>&x;&y;</a>
#resource http://a/
<![  INCLUDE[
  <!ENTITY x "X">
]]>
  <!ENTITY y "Y">
#errors
1;1;no XML decl;;;s
[1]1;1;no XML decl;;;s
[1]2;3;xml:dtd:ext decl;;;w
[1]4;3;xml:dtd:ext decl;;;w
#document
| <!DOCTYPE a "" "http://a/">
| <{} a>
|   "XY"

#data
<!DOCTYPE a SYSTEM "http://a/"><a>&x;&y;</a>
#resource http://a/
<![INCLUDE   [
  <!ENTITY x "X">
]]>
  <!ENTITY y "Y">
#errors
1;1;no XML decl;;;s
[1]1;1;no XML decl;;;s
[1]2;3;xml:dtd:ext decl;;;w
[1]4;3;xml:dtd:ext decl;;;w
#document
| <!DOCTYPE a "" "http://a/">
| <{} a>
|   "XY"

#data
<!DOCTYPE a SYSTEM "http://a/"><a>&x;&y;</a>
#resource http://a/
<![  INCLUDE  [
  <!ENTITY x "X">
]]>
  <!ENTITY y "Y">
#errors
1;1;no XML decl;;;s
[1]1;1;no XML decl;;;s
[1]2;3;xml:dtd:ext decl;;;w
[1]4;3;xml:dtd:ext decl;;;w
#document
| <!DOCTYPE a "" "http://a/">
| <{} a>
|   "XY"

#data
<!DOCTYPE a SYSTEM "http://a/"><a>&x;&y;</a>
#resource http://a/
<![INCLUDE[
  <!ENTITY x "X">
]]
  <!ENTITY y "Y">
#errors
1;1;no XML decl;;;s
[1]1;1;no XML decl;;;s
[1]2;3;xml:dtd:ext decl;;;w
[1]3;1;string in internal subset;;;m
[1]4;3;xml:dtd:ext decl;;;w
[1]4;18;parser:EOF;;;m
#document
| <!DOCTYPE a "" "http://a/">
| <{} a>
|   "XY"

#data
<!DOCTYPE a SYSTEM "http://a/"><a>&x;&y;</a>
#resource http://a/
<![INCLUDE[
  <!ENTITY x "X">
]] >
  <!ENTITY y "Y">
#errors
1;1;no XML decl;;;s
[1]1;1;no XML decl;;;s
[1]2;3;xml:dtd:ext decl;;;w
[1]3;1;string in internal subset;;;m
[1]3;4;string in internal subset;;;m
[1]4;3;xml:dtd:ext decl;;;w
[1]4;18;parser:EOF;;;m
#document
| <!DOCTYPE a "" "http://a/">
| <{} a>
|   "XY"

#data
<!DOCTYPE a SYSTEM "http://a/"><a>&x;&y;</a>
#resource http://a/
<![INCLUDE[
  <!ENTITY x "X">
] ]>
  <!ENTITY y "Y">
#errors
1;1;no XML decl;;;s
[1]1;1;no XML decl;;;s
[1]2;3;xml:dtd:ext decl;;;w
[1]3;2;string after internal subset;;;m
[1]3;3;string in internal subset;;;m
[1]4;18;parser:EOF;;;m
[1]4;3;xml:dtd:ext decl;;;w
#document
| <!DOCTYPE a "" "http://a/">
| <{} a>
|   "XY"

#data
<!DOCTYPE a SYSTEM "http://a/"><a>&x;&y;</a>
#resource http://a/
  <!ENTITY x "X">
]]>
  <!ENTITY y "Y">
#errors
1;1;no XML decl;;;s
[1]1;1;no XML decl;;;s
[1]1;3;xml:dtd:ext decl;;;w
[1]2;1;string in internal subset;;;m
[1]3;3;xml:dtd:ext decl;;;w
#document
| <!DOCTYPE a "" "http://a/">
| <{} a>
|   "XY"

#data
<!DOCTYPE a SYSTEM "http://a/"><a>&x;&y;</a>
#resource http://a/
<![INCLUDE[
  <![INCLUDE[
    <!ENTITY x "X">
  ]]>
]]>
  <!ENTITY y "Y">
#errors
1;1;no XML decl;;;s
[1]1;1;no XML decl;;;s
[1]3;5;xml:dtd:ext decl;;;w
[1]6;3;xml:dtd:ext decl;;;w
#document
| <!DOCTYPE a "" "http://a/">
| <{} a>
|   "XY"

#data
<!DOCTYPE a SYSTEM "http://a/"><a>&x;&y;</a>
#resource http://a/
<![IGNORE[
  <!ENTITY x "X">
]]>
  <!ENTITY y "Y">
#errors
1;1;no XML decl;;;s
[1]1;1;no XML decl;;;s
[1]4;3;xml:dtd:ext decl;;;w
1;35;entity not declared;;&x;;m
#document
| <!DOCTYPE a "" "http://a/">
| <{} a>
|   "&x;Y"

#data
<!DOCTYPE a SYSTEM "http://a/"><a>&x;&y;</a>
#resource http://a/
<![ IGNORE[
  <!ENTITY x "X">
]]>
  <!ENTITY y "Y">
#errors
1;1;no XML decl;;;s
[1]1;1;no XML decl;;;s
[1]4;3;xml:dtd:ext decl;;;w
1;35;entity not declared;;&x;;m
#document
| <!DOCTYPE a "" "http://a/">
| <{} a>
|   "&x;Y"

#data
<!DOCTYPE a SYSTEM "http://a/"><a>&x;&y;</a>
#resource http://a/
<![IGNORE
[
  <!ENTITY x "X">
]]>
  <!ENTITY y "Y">
#errors
1;1;no XML decl;;;s
[1]1;1;no XML decl;;;s
[1]5;3;xml:dtd:ext decl;;;w
1;35;entity not declared;;&x;;m
#document
| <!DOCTYPE a "" "http://a/">
| <{} a>
|   "&x;Y"

#data
<!DOCTYPE a SYSTEM "http://a/"><a>&x;&y;</a>
#resource http://a/
<![include[
  <!ENTITY x "X">
]]>
  <!ENTITY y "Y">
#errors
1;1;no XML decl;;;s
[1]1;1;no XML decl;;;s
[1]1;4;keyword-wrong-case;;include;m
[1]2;3;xml:dtd:ext decl;;;w
[1]4;3;xml:dtd:ext decl;;;w
#document
| <!DOCTYPE a "" "http://a/">
| <{} a>
|   "XY"

#data
<!DOCTYPE a SYSTEM "http://a/"><a>&x;&y;</a>
#resource http://a/
<![  include[
  <!ENTITY x "X">
]]>
  <!ENTITY y "Y">
#errors
1;1;no XML decl;;;s
[1]1;1;no XML decl;;;s
[1]1;6;keyword-wrong-case;;include;m
[1]2;3;xml:dtd:ext decl;;;w
[1]4;3;xml:dtd:ext decl;;;w
#document
| <!DOCTYPE a "" "http://a/">
| <{} a>
|   "XY"

#data
<!DOCTYPE a SYSTEM "http://a/"><a>&x;&y;</a>
#resource http://a/
<![ignore[
  <!ENTITY x "X">
]]>
  <!ENTITY y "Y">
#errors
1;1;no XML decl;;;s
[1]1;1;no XML decl;;;s
[1]1;4;keyword-wrong-case;;ignore;m
[1]4;3;xml:dtd:ext decl;;;w
1;35;entity not declared;;&x;;m
#document
| <!DOCTYPE a "" "http://a/">
| <{} a>
|   "&x;Y"

#data
<!DOCTYPE a SYSTEM "http://a/"><a>&x;&y;</a>
#resource http://a/
<![INCLUDE2[
  <!ENTITY x "X">
]]>
  <!ENTITY y "Y">
#errors
1;1;no XML decl;;;s
[1]1;1;no XML decl;;;s
[1]1;11;ms:no dso;;;m
[1]4;3;xml:dtd:ext decl;;;w
1;35;entity not declared;;&x;;m
#document
| <!DOCTYPE a "" "http://a/">
| <{} a>
|   "&x;Y"

#data
<!DOCTYPE a SYSTEM "http://a/"><a>&x;&y;</a>
#resource http://a/
<![IGNORE2[
  <!ENTITY x "X">
]]>
  <!ENTITY y "Y">
#errors
1;1;no XML decl;;;s
[1]1;1;no XML decl;;;s
[1]1;10;ms:no dso;;;m
[1]4;3;xml:dtd:ext decl;;;w
1;35;entity not declared;;&x;;m
#document
| <!DOCTYPE a "" "http://a/">
| <{} a>
|   "&x;Y"

#data
<!DOCTYPE a SYSTEM "http://a/"><a>&x;&y;</a>
#resource http://a/
<![INCLUDE IGNORE[
  <!ENTITY x "X">
]]>
  <!ENTITY y "Y">
#errors
1;1;no XML decl;;;s
[1]1;1;no XML decl;;;s
[1]1;12;ms:no dso;;;m
[1]4;3;xml:dtd:ext decl;;;w
1;35;entity not declared;;&x;;m
#document
| <!DOCTYPE a "" "http://a/">
| <{} a>
|   "&x;Y"

#data
<!DOCTYPE a SYSTEM "http://a/"><a>&x;&y;</a>
#resource http://a/
<![INCLUDE
  <!ENTITY x "X">
]]>
  <!ENTITY y "Y">
#errors
1;1;no XML decl;;;s
[1]1;1;no XML decl;;;s
[1]2;3;ms:no dso;;;m
[1]4;3;xml:dtd:ext decl;;;w
1;35;entity not declared;;&x;;m
#document
| <!DOCTYPE a "" "http://a/">
| <{} a>
|   "&x;Y"

#data
<!DOCTYPE a SYSTEM "http://a/"><a>&x;&y;</a>
#resource http://a/
<![
  <!ENTITY x "X">
]]>
  <!ENTITY y "Y">
#errors
1;1;no XML decl;;;s
[1]1;1;no XML decl;;;s
[1]2;3;ms:no status keyword;;;m
[1]4;3;xml:dtd:ext decl;;;w
1;35;entity not declared;;&x;;m
#document
| <!DOCTYPE a "" "http://a/">
| <{} a>
|   "&x;Y"

#data
<!DOCTYPE a SYSTEM "http://a/"><a>&x;&y;</a>
#resource http://a/
<![
  <!ENTITY x "X">
]>
  <!ENTITY y "Y">
#errors
1;1;no XML decl;;;s
[1]1;1;no XML decl;;;s
[1]2;3;ms:no status keyword;;;m
[1]4;18;parser:EOF;;;m
[1]4;18;parser:EOF;;;m
1;35;entity not declared;;&x;;m
1;38;entity not declared;;&y;;m
#document
| <!DOCTYPE a "" "http://a/">
| <{} a>
|   "&x;&y;"

#data
<!DOCTYPE a SYSTEM "http://a/"><a>&x;&y;</a>
#resource http://a/
<![
  <!ENTITY x "X">
]<!ENTITY y "Y">
#errors
1;1;no XML decl;;;s
[1]1;1;no XML decl;;;s
[1]2;3;ms:no status keyword;;;m
[1]3;17;parser:EOF;;;m
[1]3;17;parser:EOF;;;m
1;35;entity not declared;;&x;;m
1;38;entity not declared;;&y;;m
#document
| <!DOCTYPE a "" "http://a/">
| <{} a>
|   "&x;&y;"

#data
<!DOCTYPE a SYSTEM "http://a/"><a>&x;&y;</a>
#resource http://a/
<![IGNORE[
  <![
    <!ENTITY x "X">
  ]]>
]]>
<!ENTITY y "Y">
#errors
1;1;no XML decl;;;s
[1]1;1;no XML decl;;;s
[1]6;1;xml:dtd:ext decl;;;w
1;35;entity not declared;;&x;;m
#document
| <!DOCTYPE a "" "http://a/">
| <{} a>
|   "&x;Y"

#data
<!DOCTYPE a SYSTEM "http://a/"[
  <!ENTITY % a "">
]><a>&x;&y;</a>
#resource http://a/
<![IGNORE[
  <![
    <!ENTITY x "X">
  ]]>
]]>
<!ENTITY y "Y">
#errors
1;1;no XML decl;;;s
[1]1;1;no XML decl;;;s
3;6;entity not declared;;&x;;m
[1]6;1;xml:dtd:ext decl;;;w
#document
| <!DOCTYPE a "" "http://a/">
| <{} a>
|   "&x;Y"

#data
<!DOCTYPE a SYSTEM "http://a/"[
  <!ENTITY % a "">
]><a>&x;&y;</a>
#resource http://a/
<?xml encoding="utf-8"?><![IGNORE[
  <![
    <!ENTITY x "X">
  ]]>
]]>
<!ENTITY y "Y">
#errors
1;1;no XML decl;;;s
3;6;entity not declared;;&x;;m
[1]6;1;xml:dtd:ext decl;;;w
#document
| <!DOCTYPE a "" "http://a/">
| <{} a>
|   "&x;Y"

#data
<!DOCTYPE a SYSTEM "http://a/"><a>&x;&y;</a>
#resource http://a/
<?xml encoding="utf-8"?><![IGNORE[
  <![
    <!ENTITY x "X">
  ]]>
]]>
<!ENTITY y "Y">
#errors
1;1;no XML decl;;;s
1;35;entity not declared;;&x;;m
[1]6;1;xml:dtd:ext decl;;;w
#document
| <!DOCTYPE a "" "http://a/">
| <{} a>
|   "&x;Y"
