#data
<a/>
#errors
1;1;no XML decl;;;s
#document
| <{} a>

#data
<a></a>
#errors
1;1;no XML decl;;;s
#document
| <{} a>

#data
<a><b></a>
#errors
1;1;no XML decl;;;s
1;7;not closed before ancestor end tag;b;a;m
#document
| <{} a>
|   <{} b>

#data
<a><b></a>a
#errors
1;1;no XML decl;;;s
1;7;not closed before ancestor end tag;b;a;m
1;11;text outside of root element;;;m
#document
| <{} a>
|   <{} b>

#data
<a/><b/>
#errors
1;1;no XML decl;;;s
1;5;second root element;;;m
1;5;nestc;b;;m
#document
| <{} a>

#data
<?xml version="1.0"?><a/></b>
#errors
1;26;stray end tag;;b;m
#document
| <{} a>

#data
<?xml version="1.0"?></b><a/>
#errors
1;22;stray end tag;;b;m
#document
| <{} a>

#data
<?xml version="1.0"?><!DOCTYPE a></b><a/>
#errors
1;34;stray end tag;;b;m
#document
| <!DOCTYPE a>
| <{} a>
