#xml 1
<a><b></b><c><d><a bb="" cc=""></a></d></c><b ta=""/></a>

#data
descendant::*
#result 1
/1
/1/1
/1/2
/1/2/1
/1/2/1/1
/1/3

#data
descendant::node()
#result 1
/1
/1/1
/1/2
/1/2/1
/1/2/1/1
/1/3

#data
descendant::a
#result 1
/1
/1/2/1/1

#data
/descendant::a
#result 1
/1
/1/2/1/1

#data
descendant-or-self::node()
#result 1
/
/1
/1/1
/1/2
/1/2/1
/1/2/1/1
/1/3

#data
descendant-or-self::*
#result 1
/1
/1/1
/1/2
/1/2/1
/1/2/1/1
/1/3

#data
descendant-or-self::b
#result 1
/1/1
/1/3

#data
/descendant-or-self::*/child::a
#result 1
/1/2/1/1

#data
descendant-or-self::node ()/child::a
#result 1
/1
/1/2/1/1

#data
//child::a
#result 1
/1
/1/2/1/1

#data
a//b
#result 1
/1/1
/1/3

#data
a//c
#result 1
/1/2

#data
a//a
#result 1
/1/2/1/1

#xml 2
<p><!---->aa<?aa?>b<p x="">aa<!----></p></p>

#data
//comment()
#result 2
/1/1
/1/5/2

#data
//comment()//node ()
#result 2

#data
p/descendant::*/comment ()
#result 2
/1/5/2

#data
/descendant::node()
#result 2
/1
/1/1
/1/2
/1/3
/1/4
/1/5
/1/5/1
/1/5/2

#data
/descendant-or-self::node()
#result 2
/
/1
/1/1
/1/2
/1/3
/1/4
/1/5
/1/5/1
/1/5/2

#xml 3
<p>aaa<q xml:lang="en">f<x>o</x>o</q>as<q xml:lang="en-">aa</q><r xml:lang="fr-fr">zz</r>e</p>

#data
//self::*
#result 3
/1
/1/2
/1/2/2
/1/4
/1/5

#data
//*
#result 3
/1
/1/2
/1/2/2
/1/4
/1/5
