#data
[hoge] interface A {};
#errors
1;1;webidl:not allowed;;hoge;m
#processed
{
  "A": ["interface", {"members": {}}]
}

#data
[ArrayClass] interface A {};
#errors
1;1;webidl:not allowed;;ArrayClass;m
#processed
{
  "A": ["interface", {
    "members": {}
  }]
}

#data
[ArrayClass] callback interface A {};
#errors
1;1;webidl:not allowed;;ArrayClass;m
#processed
{
  "A": ["callback_interface", {
    "members": {}
  }]
}

#data
[ArrayClass()] interface A {};
#errors
1;1;webidl:not allowed;;ArrayClass;m
#processed
{
  "A": ["interface", {
    "members": {}
  }]
}

#data
[ArrayClass=foo()] interface A {};
#errors
1;1;webidl:not allowed;;ArrayClass;m
#processed
{
  "A": ["interface", {
    "members": {}
  }]
}

#data
[ArrayClass=foo] interface A {};
#errors
1;1;webidl:not allowed;;ArrayClass;m
#processed
{
  "A": ["interface", {
    "members": {}
  }]
}

#data
[ArrayClass=(foo,bar)] interface A {};
#errors
1;1;webidl:not allowed;;ArrayClass;m
#processed
{
  "A": ["interface", {
    "members": {}
  }]
}

#data
[ArrayClass(long,long)] interface A {};
#errors
1;16;webidl:parse error;long, ;;m

#data
interface B {};
[ArrayClass] interface A : B {};
#errors
1;17;webidl:not allowed;;ArrayClass;m
#processed
{
  "A": ["interface", {
    "members": {},
    "implements": {"B": {"depth": 1}}
  }],
  "B": ["interface", {"members": {}}]
}

#data
interface A {};
[ArrayClass] partial interface  A {};
#errors
1;17;webidl:not allowed;;ArrayClass;m
#processed
{
  "A": ["interface", {"members": {}}]
}

#data
[ArrayClass] dictionary A {};
#errors
1;1;webidl:not allowed;;ArrayClass;m
#processed
{
  "A": ["dictionary", {"members": {}}]
}

#data
[LegacyArrayClass] interface A {};
#processed
{
  "A": ["interface", {
    "ArrayClass": 1,
    "members": {}
  }]
}

#data
[LegacyArrayClass] callback interface A {};
#errors
1;1;webidl:not allowed;;LegacyArrayClass;m
#processed
{
  "A": ["callback_interface", {
    "members": {}
  }]
}

#data
[LegacyArrayClass()] interface A {};
#errors
1;1;webidl:bad args;;LegacyArrayClass;m
#processed
{
  "A": ["interface", {
    "ArrayClass": 1,
    "members": {}
  }]
}

#data
[LegacyArrayClass=foo()] interface A {};
#errors
1;1;webidl:bad args;;LegacyArrayClass;m
#processed
{
  "A": ["interface", {
    "ArrayClass": 1,
    "members": {}
  }]
}

#data
[LegacyArrayClass=foo] interface A {};
#errors
1;1;webidl:bad args;;LegacyArrayClass;m
#processed
{
  "A": ["interface", {
    "ArrayClass": 1,
    "members": {}
  }]
}

#data
[LegacyArrayClass=(foo,bar)] interface A {};
#errors
1;1;webidl:bad args;;LegacyArrayClass;m
#processed
{
  "A": ["interface", {
    "ArrayClass": 1,
    "members": {}
  }]
}

#data
[LegacyArrayClass(long,long)] interface A {};
#errors
1;22;webidl:parse error;long, ;;m

#data
interface B {};
[LegacyArrayClass] interface A : B {};
#errors
1;17;webidl:not allowed;;LegacyArrayClass;m
#processed
{
  "A": ["interface", {
    "members": {},
    "implements": {"B": {"depth": 1}}
  }],
  "B": ["interface", {"members": {}}]
}

#data
interface A {};
[LegacyArrayClass] partial interface  A {};
#errors
1;17;webidl:not allowed;;LegacyArrayClass;m
#processed
{
  "A": ["interface", {"members": {}}]
}

#data
[LegacyArrayClass] dictionary A {};
#errors
1;1;webidl:not allowed;;LegacyArrayClass;m
#processed
{
  "A": ["dictionary", {"members": {}}]
}

#data
dictionary A {
  [Clamp] long  lhoo;
};
#processed
{
  "A": ["dictionary", {
    "members": {
      "lhoo": ["dictionary_member", {
        "type": ["Clamp", "long"]
      }]
    }
  }]
}

#data
interface A {
  [Clamp] attribute long  lhoo;
};
#errors
1;17;webidl:not allowed;;Clamp;m
#processed
{
  "A": ["interface", {
    "members": {
      "lhoo": ["attribute", {
        "type": "long",
        "getter": 1, "setter": 1
      }]
    }
  }]
}

#data
interface A {
  [Clamp] readonly attribute long  lhoo;
};
#errors
1;17;webidl:not allowed;;Clamp;m
#processed
{
  "A": ["interface", {
    "members": {
      "lhoo": ["attribute", {
        "type": "long",
        "getter": 1
      }]
    }
  }]
}

#data
dictionary A {
  [Clamp]  long  lhoo;
};
#processed
{
  "A": ["dictionary", {
    "members": {
      "lhoo": ["dictionary_member", {
        "type": ["Clamp", "long"]
      }]
    }
  }]
}

#data
dictionary A {
  [Hoge]  long  lhoo;
};
#errors
1;18;webidl:not allowed;;Hoge;m
#processed
{
  "A": ["dictionary", {
    "members": {
      "lhoo": ["dictionary_member", {
        "type": "long"
      }]
    }
  }]
}

#data
interface A {
  [Clamp,Clamp] attribute long  lhoo;
};
#errors
1;17;webidl:not allowed;;Clamp;m
1;23;webidl:not allowed;;Clamp;m
#processed
{
  "A": ["interface", {
    "members": {
      "lhoo": ["attribute", {
        "type": "long",
        "getter": 1, "setter": 1
      }]
    }
  }]
}

#data
[Constructor]
interface A {};
#errors
1;1;webidl:not allowed;;Constructor;m
1;;webidl:no Exposed;;A;w
#processed
{
  "idl_defs": {
    "A": ["interface", {
      "members": {},
      "Exposed":{}
    }]
  },
  "global_members": {
    "A": ["object", {
      "Exposed":{}
    }]
  }
}

#data
[Constructor(long foo)]
interface A {};
#errors
1;1;webidl:not allowed;;Constructor;m
1;;webidl:no Exposed;;A;w
#processed
{
  "idl_defs": {
    "A": ["interface", {
      "members": {},
      "Exposed":{}
    }]
  },
  "global_members": {
    "A": ["object", {
      "Exposed":{}
    }]
  }
}

#data
[Constructor(long foo),Constructor]
interface A {};
#errors
1;1;webidl:not allowed;;Constructor;m
1;23;webidl:not allowed;;Constructor;m
1;;webidl:no Exposed;;A;w
#processed
{
  "idl_defs": {
    "A": ["interface", {
      "members": {},
      "Exposed":{}
    }]
  },
  "global_members": {
    "A": ["object", {
      "Exposed":{}
    }]
  }
}

#data
[Constructor(optional long foo)]
interface A {};
#errors
1;1;webidl:not allowed;;Constructor;m
1;;webidl:no Exposed;;A;w
#processed
{
  "idl_defs": {
    "A": ["interface", {
      "members": {},
      "Exposed":{}
    }]
  },
  "global_members": {
    "A": ["object", {
      "Exposed":{}
    }]
  }
}

#data
[Constructor,Constructor(optional long foo)]
interface A {};
#errors
1;1;webidl:not allowed;;Constructor;m
1;13;webidl:not allowed;;Constructor;m
1;;webidl:no Exposed;;A;w
#processed
{
  "idl_defs": {
    "A": ["interface", {
      "Exposed":{},
      "members": {}
    }]
  },
  "global_members": {
    "A": ["object", {
      "Exposed":{}
    }]
  }
}

#data
interface A {};
[Constructor(optional long foo)]
partial interface A {};
#errors
1;17;webidl:not allowed;;Constructor;m
1;;webidl:no Exposed;;A;w
#processed
{
  "idl_defs": {
    "A": ["interface", {
      "members": {},
      "Exposed":{}
    }]
  },
  "global_members": {
    "A": ["object", {
      "Exposed":{}
    }]
  }
}

#data
[Constructor]
interface A {};
[Constructor(long foo)]
partial interface A {};
#errors
1;1;webidl:not allowed;;Constructor;m
1;31;webidl:not allowed;;Constructor;m
1;;webidl:no Exposed;;A;w
#processed
{
  "idl_defs": {
    "A": ["interface", {
      "members": {},
      "Exposed":{}
    }]
  },
  "global_members": {
    "A": ["object", {
      "Exposed":{}
    }]
  }
}

#data
[Constructor]
dictionary A {};
#errors
1;1;webidl:not allowed;;Constructor;m
#processed
{
  "idl_defs": {
    "A": ["dictionary", {
      "members": {}
    }]
  },
  "global_members": {}
}

#data
[Constructor]
partial dictionary A {};
dictionary A {};
#errors
1;1;webidl:not allowed;;Constructor;m
#processed
{
  "idl_defs": {
    "A": ["dictionary", {
      "members": {}
    }]
  },
  "global_members": {}
}

#data
[Constructor]
callback interface A {};
#errors
1;1;webidl:not allowed;;Constructor;m
1;;webidl:no Exposed;;A;w
#processed
{
  "idl_defs": {
    "A": ["callback_interface", {
      "members": {},
      "Exposed":{}
    }]
  },
  "global_members": {}
}

#data
[Constructor]
A includes B;
interface A {};
interface mixin B {};
#errors
1;1;webidl:not allowed;;Constructor;m
1;;webidl:no Exposed;;A;w
#processed
{
  "idl_defs": {
  "A": ["interface", {
    "members": {},
    "implements": {"B": {"depth": 1, "supplemental": 1}},
    "Exposed":{}
  }],
  "B": ["interface_mixin", {
    "members": {}
  }]
  },
  "global_members": {
    "A": ["object", {
      "Exposed":{}
    }]
  }
}

#data
dictionary A {
  [EnforceRange] long hoge;
};
#processed
{
  "A": ["dictionary", {
    "members": {
      "hoge": ["dictionary_member", {
        "type": ["EnforceRange", "long"]
      }]
    }
  }]
}

#data
interface A {
  [EnforceRange] attribute long hoge;
};
#errors
1;17;webidl:not allowed;;EnforceRange;m
#processed
{
  "A": ["interface", {
    "members": {
      "hoge": ["attribute", {
        "type": "long",
        "getter": 1, "setter": 1
      }]
    }
  }]
}

#data
interface A {
  [Clamp,EnforceRange] attribute long hoge;
};
#errors
1;17;webidl:not allowed;;Clamp;m
1;23;webidl:not allowed;;EnforceRange;m
#processed
{
  "A": ["interface", {
    "members": {
      "hoge": ["attribute", {
        "type": "long",
        "getter": 1, "setter": 1
      }]
    }
  }]
}

#data
interface A {
  [EnforceRange] static attribute long hoge;
};
#errors
1;17;webidl:not allowed;;EnforceRange;m
#processed
{
  "A": ["interface", {
    "members": {
      "hoge": ["static_attribute", {
        "type": "long",
        "getter": 1, "setter": 1
      }]
    }
  }]
}

#data
interface A {
  [EnforceRange] readonly attribute long hoge;
};
#errors
1;17;webidl:not allowed;;EnforceRange;m
#processed
{
  "A": ["interface", {
    "members": {
      "hoge": ["attribute", {
        "type": "long",
        "getter": 1
      }]
    }
  }]
}

#data
[Constructor([EnforceRange] unsigned long a)]
interface A {};
#errors
1;1;webidl:not allowed;;Constructor;m
1;;webidl:no Exposed;;A;w
#processed
{
  "idl_defs": {
    "A": ["interface", {
      "members": {},
      "Exposed":{}
    }]
  },
  "global_members": {
    "A": ["object", {
      "Exposed":{}
    }]
  }
}

#data
interface A {
  void foo ([EnsureUTF16] DOMString hoge);
};
#errors
1;27;webidl:not allowed;;EnsureUTF16;m
#processed
{
  "A": ["interface", {
    "members": {
      "foo": ["operation", {
        "overload_set": {
          "DOMString": {
            "type": "void",
            "args": [{"name": "hoge", "type": "DOMString",
                      "optionality": "required"}]
          }
        }
      }]
    }
  }]
}

#data
[ImplicitThis]
interface A { };
#errors
1;1;webidl:not allowed;;ImplicitThis;m
#processed
{
  "A": ["interface", {
    "members": {}
  }]
}

#data
[ImplicitThis]
callback interface A { };
#errors
1;1;webidl:not allowed;;ImplicitThis;m
#processed
{
  "A": ["callback_interface", {
    "members": {}
  }]
}

#data
interface A {
  [LenientThis] attribute long foo;
};
#processed
{
  "A": ["interface", {
    "members": {
      "foo": ["attribute", {
        "type": "long",
        "LenientThis": 1,
        "getter": 1, "setter": 1
      }]
    }
  }]
}

#data
interface A {
  [LenientThis] static attribute long foo;
};
#errors
1;17;webidl:not allowed;;LenientThis;m
#processed
{
  "A": ["interface", {
    "members": {
      "foo": ["static_attribute", {
        "type": "long",
        "getter": 1, "setter": 1
      }]
    }
  }]
}

#data
[MapClass]
interface A {};
#errors
1;1;webidl:not allowed;;MapClass;m
#processed
{
  "A": ["interface", {
    "members": {}
  }]
}

#data
[MapClass(long, B)]
interface A {};
interface B {};
#errors
1;14;webidl:parse error;long, ;;m

#data
[MapClass(long, B)]
interface A {};
#errors
1;14;webidl:parse error;long, ;;m

#data
[MapClass(long, B)]
interface A : B {};
interface B {};
#errors
1;14;webidl:parse error;long, ;;m

#data
[LegacyArrayClass, MapClass(long, B)]
interface A  {};
interface B {};
#errors
1;32;webidl:parse error;long, ;;m

#data
interface A {
  [NewObject] A foo ();
};
#processed
{
  "A": ["interface", {
    "members": {
      "foo": ["operation", {
        "overload_set": {
          "": {
            "type": ["ref_interface", "A"],
            "args": [],
            "NewObject": 1
          }
        }
      }]
    }
  }]
}

#data
interface A {
  [NewObject] A foo (optional long foo, long... bar);
  A foo (A hoge);
};
#processed
{
  "A": ["interface", {
    "members": {
      "foo": ["operation", {
        "overloaded": 1,
        "overload_set": {
          "": {
            "type": ["ref_interface", "A"],
            "args": [],
            "NewObject": 1
          },
          "long": {
            "type": ["ref_interface", "A"],
            "args": [
              {"name": "foo", "optionality": "optional", "type": "long"}
            ],
            "NewObject": 1
          },
          "long,long": {
            "type": ["ref_interface", "A"],
            "args": [
              {"name": "foo", "optionality": "optional", "type": "long"},
              {"name": "bar", "optionality": "variadic", "type": "long"}
            ],
            "NewObject": 1
          },
          "ref[A]": {
            "type": ["ref_interface", "A"],
            "args": [
              {"name": "hoge", "optionality": "required", "type": ["ref_interface", "A"]}
            ]
          }
        }
      }]
    }
  }]
}

#data
interface A {
  [NewObject] getter A (DOMString foo);
};
#errors
1;17;webidl:not allowed;;NewObject;m
#processed
{
  "A": ["interface", {
    "named_getter": ["operation", {
      "overload_set": {
        "DOMString": {
          "type": ["ref_interface", "A"],
          "args": [
            {"name": "foo", "type": "DOMString", "optionality": "required"}
          ]
        }
      }
    }],
    "members": {}
  }]
}

#data
interface A {
  [NewObject] getter A f (DOMString foo);
};
#processed
{
  "A": ["interface", {
    "named_getter": ["operation", {
      "overload_set": {
        "DOMString": {
          "type": ["ref_interface", "A"],
          "args": [
            {"name": "foo", "type": "DOMString", "optionality": "required"}
          ],
          "NewObject": 1
        }
      }
    }],
    "members": {
      "f": ["operation", {
        "overload_set": {
          "DOMString": {
            "type": ["ref_interface", "A"],
            "args": [
              {"name": "foo", "type": "DOMString", "optionality": "required"}
            ],
            "NewObject": 1
          }
        }
      }]
    }
  }]
}

#data
[NoInterfaceObject]
interface A { };
#processed
{
  "A": ["interface", {
    "members": {},
    "NoInterfaceObject": 1
  }]
}

#data
[NoInterfaceObject]
interface A { };
#processed
{
  "A": ["interface", {
    "members": {},
    "NoInterfaceObject": 1
  }]
}

#data
[NoInterfaceObject]
callback interface A {
  const long foo = 13;
};
#errors
1;1;webidl:not allowed;;NoInterfaceObject;m
#processed
{
  "A": ["callback_interface", {
    "members": {
      "foo": ["const", {
        "type": "long",
        "value": ["integer", 13]
      }]
    }
  }]
}

#data
[OverrideBuiltins]
interface A {
  getter long  (DOMString a);
};
#processed
{
  "A": ["interface", {
    "OverrideBuiltins": 1,
    "members": {},
    "named_getter": ["operation", {
      "overload_set": {
        "DOMString": {
          "type": "long",
          "args": [{"name": "a", "type": "DOMString", "optionality": "required"}]
        }
      }
    }]
  }]
}

#data
[OverrideBuiltins]
callback interface A {
};
#errors
1;1;webidl:not allowed;;OverrideBuiltins;m
#processed
{
  "A": ["callback_interface", {
    "members": {}
  }]
}

#data
interface A {
  [PutForwards=href] readonly attribute Link foo;
};
interface Link {
  attribute DOMString href;
};
#processed
{
  "A": ["interface", {
    "members": {
      "foo": ["attribute", {
        "type": ["ref_interface", "Link"],
        "getter": 1,
        "setter": ["ref_attribute", "href"]
      }]
    }
  }],
  "Link": ["interface", {
    "members": {
      "href": ["attribute", {
        "type": "DOMString",
        "getter": 1, "setter": 1
      }]
    }
  }]
}

#data
interface A {
  [PutForwards=href]  attribute Link foo;
};
interface Link {
  attribute DOMString href;
};
#errors
1;17;webidl:duplicate;;PutForwards;m
#processed
{
  "A": ["interface", {
    "members": {
      "foo": ["attribute", {
        "type": ["ref_interface", "Link"],
        "getter": 1,
        "setter": ["ref_attribute", "href"]
      }]
    }
  }],
  "Link": ["interface", {
    "members": {
      "href": ["attribute", {
        "type": "DOMString",
        "getter": 1, "setter": 1
      }]
    }
  }]
}

#data
interface A {
  [PutForwards=href] static readonly attribute Link foo;
};
interface Link {
  attribute DOMString href;
};
#errors
1;17;webidl:not allowed;;PutForwards;m
#processed
{
  "A": ["interface", {
    "members": {
      "foo": ["static_attribute", {
        "type": ["ref_interface", "Link"],
        "getter": 1
      }]
    }
  }],
  "Link": ["interface", {
    "members": {
      "href": ["attribute", {
        "type": "DOMString",
        "getter": 1, "setter": 1
      }]
    }
  }]
}

#data
interface A {
  [Replaceable] readonly attribute long hoge;
};
#processed
{
  "A": ["interface", {
    "members": {
      "hoge": ["attribute", {
        "type": "long",
        "getter": 1,
        "setter": "replaceable"
      }]
    }
  }]
}

#data
interface A {
  [Replaceable] static readonly attribute long hoge;
};
#errors
1;17;webidl:not allowed;;Replaceable;m
#processed
{
  "A": ["interface", {
    "members": {
      "hoge": ["static_attribute", {
        "type": "long",
        "getter": 1
      }]
    }
  }]
}

#data
interface A {
  [Replaceable]  attribute long hoge;
};
#errors
1;17;webidl:duplicate;;Replaceable;m
#processed
{
  "A": ["interface", {
    "members": {
      "hoge": ["attribute", {
        "type": "long",
        "getter": 1,
        "setter": "replaceable"
      }]
    }
  }]
}

#data
interface A {
  [Replaceable, PutForwards=foo] readonly attribute Foo hoge;
};
interface Foo {
  attribute DOMString foo;
};
#errors
1;30;webidl:duplicate;;PutForwards;m
#processed
{
  "A": ["interface", {
    "members": {
      "hoge": ["attribute", {
        "type": ["ref_interface", "Foo"],
        "getter": 1,
        "setter": ["ref_attribute", "foo"]
      }]
    }
  }],
  "Foo": ["interface", {
    "members": {
      "foo": ["attribute", {"type": "DOMString", "getter": 1, "setter": 1}]
    }
  }]
}

#data
interface A {
  [LenientSetter] readonly attribute long hoge;
};
#processed
{
  "A": ["interface", {
    "members": {
      "hoge": ["attribute", {
        "type": "long",
        "getter": 1,
        "setter": "LenientSetter"
      }]
    }
  }]
}

#data
interface A {
  [LenientSetter] static readonly attribute long hoge;
};
#errors
1;17;webidl:not allowed;;LenientSetter;m
#processed
{
  "A": ["interface", {
    "members": {
      "hoge": ["static_attribute", {
        "type": "long",
        "getter": 1
      }]
    }
  }]
}

#data
interface A {
  [LenientSetter]  attribute long hoge;
};
#errors
1;17;webidl:duplicate;;LenientSetter;m
#processed
{
  "A": ["interface", {
    "members": {
      "hoge": ["attribute", {
        "type": "long",
        "getter": 1,
        "setter": "LenientSetter"
      }]
    }
  }]
}

#data
interface A {
  [LenientSetter, PutForwards=foo] readonly attribute Foo hoge;
};
interface Foo {
  attribute DOMString foo;
};
#errors
1;32;webidl:duplicate;;PutForwards;m
#processed
{
  "A": ["interface", {
    "members": {
      "hoge": ["attribute", {
        "type": ["ref_interface", "Foo"],
        "getter": 1,
        "setter": ["ref_attribute", "foo"]
      }]
    }
  }],
  "Foo": ["interface", {
    "members": {
      "foo": ["attribute", {"type": "DOMString", "getter": 1, "setter": 1}]
    }
  }]
}

#data
interface A {
  [LenientSetter, Replaceable] readonly attribute Foo hoge;
};
interface Foo {
  attribute DOMString foo;
};
#errors
1;32;webidl:duplicate;;Replaceable;m
#processed
{
  "A": ["interface", {
    "members": {
      "hoge": ["attribute", {
        "type": ["ref_interface", "Foo"],
        "getter": 1,
        "setter": "replaceable"
      }]
    }
  }],
  "Foo": ["interface", {
    "members": {
      "foo": ["attribute", {"type": "DOMString", "getter": 1, "setter": 1}]
    }
  }]
}

#data
interface A {
  [SameObject] static readonly attribute long[] Foo;
};
#errors
1;60;webidl:parse error;other, *;;m

#data
interface A {
  [SameObject]  attribute long[] Foo;
};
#errors
1;45;webidl:parse error;other, *;;m

#data
[TreatNonObjectAsNull]
callback Hoge = void ();
#processed
{
  "Hoge": ["callback", {
    "TreatNonObjectAsNull": 1,
    "overload_set": {
      "": {
        "type": "void",
        "args": []
      }
    }
  }]
}

#data
[TreatNonObjectAsNull]
callback Hoge = void (optional long foo);
#processed
{
  "Hoge": ["callback", {
    "TreatNonObjectAsNull": 1,
    "overload_set": {
      "": {
        "type": "void",
        "args": []
      },
      "long": {
        "type": "void",
        "args": [{"type": "long", "name": "foo", "optionality": "optional"}]
      }
    }
  }]
}

#data
[TreatNonCallableAsNull]
callback Hoge = void ();
#errors
1;1;webidl:not allowed;;TreatNonCallableAsNull;m
#processed
{
  "Hoge": ["callback", {
    "overload_set": {
      "": {
        "type": "void",
        "args": []
      }
    }
  }]
}

#data
[TreatNullAs=EmptyString]
callback Hoge = void ();
#errors
1;1;webidl:not allowed;;TreatNullAs;m
#processed
{
  "Hoge": ["callback", {
    "overload_set": {
      "": {
        "type": "void",
        "args": []
      }
    }
  }]
}

#data
interface A {
  [ TreatNullAs = EmptyString]attribute DOMString foo;
};
#errors
1;18;webidl:not allowed;;TreatNullAs;m
#processed
{
  "A": ["interface", {
    "members": {
      "foo": ["attribute", {
        "type": "DOMString",
        "getter": 1, "setter": 1
      }]
    }
  }]
}

#data
interface A {
  [ TreatNullAs ]attribute DOMString foo;
};
#errors
1;18;webidl:not allowed;;TreatNullAs;m
#processed
{
  "A": ["interface", {
    "members": {
      "foo": ["attribute", {
        "type": "DOMString",
        "getter": 1, "setter": 1
      }]
    }
  }]
}

#data
interface A {
  [ TreatNullAs =Null ]attribute DOMString foo;
};
#errors
1;18;webidl:not allowed;;TreatNullAs;m
#processed
{
  "A": ["interface", {
    "members": {
      "foo": ["attribute", {
        "type": "DOMString",
        "getter": 1, "setter": 1
      }]
    }
  }]
}

#data
interface A {
  [ TreatNullAs=EmptyString ] readonly attribute DOMString foo;
};
#errors
1;18;webidl:not allowed;;TreatNullAs;m
#processed
{
  "A": ["interface", {
    "members": {
      "foo": ["attribute", {
        "type": "DOMString",
        "getter": 1
      }]
    }
  }]
}

#data
callback interface A {
  [TreatNullAs=EmptyString] DOMString foo ();
};
#errors
1;26;webidl:not allowed;;TreatNullAs;m
#processed
{
  "A": ["callback_interface", {
    "members": {
      "foo": ["operation", {
        "overload_set": {
          "": {
            "type": "DOMString",
            "args": []
          }
        }
      }]
    }
  }]
}

#data
[Unforgeable]
interface A {};
#errors
1;1;webidl:not allowed;;Unforgeable;m
#processed
{
  "A": ["interface", {
    "members": {}
  }]
}

#data
interface A {
  [Unforgeable] attribute DOMString foo;
};
#errors
#processed
{
  "A": ["interface", {
    "members": {
      "foo": ["attribute", {
        "Unforgeable": 1,
        "type": "DOMString",
        "getter": 1, "setter": 1
      }]
    }
  }]
}

#data
interface A {
  [Unforgeable] static attribute DOMString foo;
};
#errors
1;17;webidl:not allowed;;Unforgeable;m
#processed
{
  "A": ["interface", {
    "members": {
      "foo": ["static_attribute", {
        "type": "DOMString",
        "getter": 1, "setter": 1
      }]
    }
  }]
}

#data
interface A {
  [Unforgeable] void foo ();
};
#errors
#processed
{
  "A": ["interface", {
    "members": {
      "foo": ["operation", {
        "Unforgeable": 1,
        "overload_set": {
          "": {
            "type": "void",
            "args": []
          }
        }
      }]
    }
  }]
}

#data
interface A {
  [Unforgeable] static void foo ();
};
#errors
1;17;webidl:not allowed;;Unforgeable;m
#processed
{
  "A": ["interface", {
    "members": {
      "foo": ["static_operation", {
        "overload_set": {
          "": {
            "type": "void",
            "args": []
          }
        }
      }]
    }
  }]
}

#data
interface A {
  [Unforgeable] void foo ();
  [Unforgeable] void foo (long a);
};
#errors
#processed
{
  "A": ["interface", {
    "members": {
      "foo": ["operation", {
        "Unforgeable": 1,
        "overloaded": 1,
        "overload_set": {
          "": {
            "type": "void",
            "args": []
          },
          "long": {
            "type": "void",
            "args": [{"name":"a","type":"long","optionality":"required"}]
          }
        }
      }]
    }
  }]
}

#data
interface A {
  [Unforgeable] void foo ();
  void foo (long a);
};
#errors
1;16;webidl:bad unforgeablility;;;m
#processed
{
  "A": ["interface", {
    "members": {
      "foo": ["operation", {
        "Unforgeable": 1,
        "overloaded": 1,
        "overload_set": {
          "": {
            "type": "void",
            "args": []
          },
          "long": {
            "type": "void",
            "args": [{"name":"a","type":"long","optionality":"required"}]
          }
        }
      }]
    }
  }]
}

#data
[Constructor(optional long hoge = 124)]
interface A {};
#errors
1;1;webidl:not allowed;;Constructor;m
1;;webidl:no Exposed;;A;w
#processed
{
  "idl_defs": {
    "A": ["interface", {"members":{},"Exposed":{}}]
  },
  "global_members": {
    "A": ["object", {
      "Exposed":{}
    }]
  }
}

#data
[Constructor( long hoge = 124)]
interface A {};
#errors
1;1;webidl:not allowed;;Constructor;m
1;;webidl:no Exposed;;A;w
#processed
{
  "idl_defs": {
    "A": ["interface", {"members":{}, "Exposed":{}}]
  },
  "global_members": {
    "A": ["object", {
      "Exposed":{}
    }]
  }
}
