#data
interface A {
  void foo (long... hh);
};
#parsed
{
  "definitions": [
    {
      "index": 0,
      "definition_type": "interface",
      "name": "A",
      "members": [
        {
          "index": 16,
          "member_type": "operation",
          "name": "foo",
          "type": "void",
          "arguments": [
            {
              "index": 26,
              "name": "hh",
              "type": "long",
              "variadic": 1
            }
          ]
        }
      ]
    }
  ]
}

#data
interface A {
  void foo (long... hh, long foo);
};
#parsed
{
  "definitions": [
    {
      "index": 0,
      "definition_type": "interface",
      "name": "A",
      "members": [
        {
          "index": 16,
          "member_type": "operation",
          "name": "foo",
          "type": "void",
          "arguments": [
            {
              "index": 26,
              "name": "hh",
              "type": "long",
              "variadic": 1
            },
            {
              "index": 38,
              "name": "foo",
              "type": "long"
            }
          ]
        }
      ]
    }
  ]
}

#data
interface A {
  void foo (optional/**/long hh);
};
#parsed
{
  "definitions": [
    {
      "index": 0,
      "definition_type": "interface",
      "name": "A",
      "members": [
        {
          "index": 16,
          "member_type": "operation",
          "name": "foo",
          "type": "void",
          "arguments": [
            {
              "index": 26,
              "name": "hh",
              "type": "long",
              "optional": 1
            }
          ]
        }
      ]
    }
  ]
}

#data
interface A {
  void foo (optional/**/long hh//
,Fuga bar);
};
#parsed
{
  "definitions": [
    {
      "index": 0,
      "definition_type": "interface",
      "name": "A",
      "members": [
        {
          "index": 16,
          "member_type": "operation",
          "name": "foo",
          "type": "void",
          "arguments": [
            {
              "index": 26,
              "name": "hh",
              "type": "long",
              "optional": 1
            },
            {
              "index": 49,
              "name": "bar",
              "type_name": "Fuga"
            }
          ]
        }
      ]
    }
  ]
}

#data
interface A {
  void foo (optional long hh = 30);
};
#parsed
{
  "definitions": [
    {
      "index": 0,
      "definition_type": "interface",
      "name": "A",
      "members": [
        {
          "index": 16,
          "member_type": "operation",
          "name": "foo",
          "type": "void",
          "arguments": [
            {
              "index": 26,
              "name": "hh",
              "type": "long",
              "optional": 1,
              "value_integer": 30
            }
          ]
        }
      ]
    }
  ]
}

#data
interface A {
  void foo (optional DOMString hh = "abc");
};
#parsed
{
  "definitions": [
    {
      "index": 0,
      "definition_type": "interface",
      "name": "A",
      "members": [
        {
          "index": 16,
          "member_type": "operation",
          "name": "foo",
          "type": "void",
          "arguments": [
            {
              "index": 26,
              "name": "hh",
              "type": "DOMString",
              "optional": 1,
              "value_string": "abc"
            }
          ]
        }
      ]
    }
  ]
}

#data
interface A {
  void foo ( long hh = 30);
};
#parsed
{
  "definitions": [
    {
      "index": 0,
      "definition_type": "interface",
      "name": "A",
      "members": [
        {
          "index": 16,
          "member_type": "operation",
          "name": "foo",
          "type": "void",
          "arguments": [
            {
              "index": 27,
              "name": "hh",
              "type": "long",
              "value_integer": 30
            }
          ]
        }
      ]
    }
  ]
}

#data
interface A {
  void foo ( long... hh = 30);
};
#errors
38;webidl:parse error;,, ;;m

#data
interface A {
  void hoo (optional sequence<long> abc = []);
};
#parsed
{
  "definitions": [
    {
      "definition_type": "interface",
      "name": "A",
      "index": 0,
      "members": [
        {
          "index": 16,
          "member_type": "operation",
          "name": "hoo",
          "type": "void",
          "arguments": [
            {
              "index": 26,
              "name": "abc",
              "optional": 1,
              "type_parameterized": {
                "type": "long",
                "type_outer": "sequence"
              },
              "value_empty_sequence": 1
            }
          ]
        }
      ]
    }
  ]
}

#data
interface A {
  void hoo (optional Dict abc = {});
};
#parsed
{
  "definitions": [
    {
      "definition_type": "interface",
      "name": "A",
      "index": 0,
      "members": [
        {
          "index": 16,
          "member_type": "operation",
          "name": "hoo",
          "type": "void",
          "arguments": [
            {
              "index": 26,
              "name": "abc",
              "optional": 1,
              "type_name": "Dict",
              "value_empty_dictionary": 1
            }
          ]
        }
      ]
    }
  ]
}

#data
interface A {
  void hoo (DOMString required);
};
#parsed
{
  "definitions": [
    {
      "definition_type": "interface",
      "name": "A",
      "index": 0,
      "members": [
        {
          "index": 16,
          "member_type": "operation",
          "name": "hoo",
          "type": "void",
          "arguments": [
            {
              "index": 26,
              "name": "required",
              "type": "DOMString"
            }
          ]
        }
      ]
    }
  ]
}

#data
interface A {
  void hoo (DOMString async);
};
#parsed
{
  "definitions": [
    {
      "definition_type": "interface",
      "name": "A",
      "index": 0,
      "members": [
        {
          "index": 16,
          "member_type": "operation",
          "name": "hoo",
          "type": "void",
          "arguments": [
            {
              "index": 26,
              "name": "async",
              "type": "DOMString"
            }
          ]
        }
      ]
    }
  ]
}

#data
interface A {
  void hoo (DOMString interface);
};
#parsed
{
  "definitions": [
    {
      "definition_type": "interface",
      "name": "A",
      "index": 0,
      "members": [
        {
          "index": 16,
          "member_type": "operation",
          "name": "hoo",
          "type": "void",
          "arguments": [
            {
              "index": 26,
              "name": "interface",
              "type": "DOMString"
            }
          ]
        }
      ]
    }
  ]
}

#data
interface A {
  void hoo (DOMString callback);
};
#parsed
{
  "definitions": [
    {
      "definition_type": "interface",
      "name": "A",
      "index": 0,
      "members": [
        {
          "index": 16,
          "member_type": "operation",
          "name": "hoo",
          "type": "void",
          "arguments": [
            {
              "index": 26,
              "name": "callback",
              "type": "DOMString"
            }
          ]
        }
      ]
    }
  ]
}

#data
interface A {
  void hoo (DOMString [*id="callback"*]callback);
};
#parsed
{
  "definitions": [
    {
      "definition_type": "interface",
      "name": "A",
      "index": 0,
      "members": [
        {
          "index": 16,
          "member_type": "operation",
          "name": "hoo",
          "type": "void",
          "arguments": [
            {
              "index": 26,
              "name": "callback",
              "type": "DOMString",
              "id": "callback"
            }
          ]
        }
      ]
    }
  ]
}

#data
interface A {
  void hoo (DOMString [*id="callback"*]includes);
};
#parsed
{
  "definitions": [
    {
      "definition_type": "interface",
      "name": "A",
      "index": 0,
      "members": [
        {
          "index": 16,
          "member_type": "operation",
          "name": "hoo",
          "type": "void",
          "arguments": [
            {
              "index": 26,
              "name": "includes",
              "type": "DOMString",
              "id": "callback"
            }
          ]
        }
      ]
    }
  ]
}

#data
interface A {
  void hoo (DOMString [*id="callback"*]constructor);
};
#parsed
{
  "definitions": [
    {
      "definition_type": "interface",
      "name": "A",
      "index": 0,
      "members": [
        {
          "index": 16,
          "member_type": "operation",
          "name": "hoo",
          "type": "void",
          "arguments": [
            {
              "index": 26,
              "name": "constructor",
              "type": "DOMString",
              "id": "callback"
            }
          ]
        }
      ]
    }
  ]
}

#data
interface A {
  void hoo (DOMString void);
};
#errors
36;webidl:parse error;?, ;;m
