#html 1
<!DOCTYPE HTML><p>

#data
p {
  size:;
}
#errors
;2;8;m;CSS syntax error;'size'
#cssom
| <p>

#data
p {
  size: auto;
}
#cssom
| <p>
|   size: auto
#csstext
p {
  size: auto;
}
#computed 1 p
#computedtext 1 p

#data
p {
  size: portrait;
}
#cssom
| <p>
|   size: portrait
#csstext
p {
  size: portrait;
}

#data
p {
  size: portreit
}
#errors
;2;9;m;CSS syntax error;'size'
#cssom
| <p>

#data
p {
  size: portrate;
}
#errors
;2;9;m;CSS syntax error;'size'
#cssom
| <p>

#data
p {
  size: landscape
}
#cssom
| <p>
|   size: landscape
#csstext
p {
  size: landscape;
}

#data
p {
  size: lANDSCape
}
#cssom
| <p>
|   size: landscape
#csstext
p {
  size: landscape;
}

#data
p {
  size: inherit;
}
#cssom
| <p>
|   size: inherit

#data
p {
  size: 1px;
} 
#cssom
| <p>
|   size: 1px
#csstext
p {
  size: 1px;
}

#data
p {
  size: 1px 2cm;
}
#cssom
| <p>
|   size: 1px 2cm
#csstext
p {
  size: 1px 2cm;
}

#data
p {
  size: 10cm 10cm
}
#cssom
| <p>
|   size: 10cm

#data
p {
  size: 10cm auto;
}
#errors
;2;14;m;css:value:not nnlength
#cssom
| <p>

#data
p {
  size: auto 10px;
}
#errors
;2;9;m;css:value:not nnlength
#cssom
| <p>

#data
p {
  size: +10px +20em;
}
#cssom
| <p>
|   size: 10px 20em

#data
p {
  size: 10in -20pt;
}
#errors
;2;14;m;css:value:not nnlength
#cssom
| <p>

#data
p {
  size: -10in -20pt;
}
#errors
;2;9;m;css:value:not nnlength
#cssom
| <p>

#data
p {
  size: 1 4
}
#errors
;2;9;m;css:value:not nnlength
#cssom
| <p>

#data
p {
  size: 1 4;
}
#option q
#errors
;2;9;m;css:value:not nnlength
#cssom
| <p>

#data
p {
  size: 10%;
}
#errors
;2;9;m;css:value:not nnlength
#cssom
| <p>

#data
p {
  size: 1px 2px 3px;
}
#errors
;2;9;m;CSS syntax error;'size'
#cssom
| <p>

#data
p {
  marks: crop;
}
#cssom
| <p>
|   marks: crop
#csstext
p {
  marks: crop;
}

#data
p {
  marks: cross;
}
#cssom
| <p>
|   marks: cross
#csstext
p {
  marks: cross;
}

#data
p {
  marks: cross cross;
}
#errors
;2;16;m;CSS syntax error;'marks'
#cssom
| <p>

#data
p {
  marks: cross Hige;
}
#errors
;2;16;m;CSS syntax error;'marks'
#cssom
| <p>

#data
p {
  marks: crop/**/cross;
}
#cssom
| <p>
|   marks: crop cross

#data
p {
  marks: crop cross;
}
#cssom
| <p>
|   marks: crop cross
#csstext
p {
  marks: crop cross;
}

#data
p {
  marks: crop /**/ cross;
}
#cssom
| <p>
|   marks: crop cross

#data
p {
  marks: cross/**/crop;
}
#cssom
| <p>
|   marks: crop cross

#data
p {
  marks: cross crop;
}
#cssom
| <p>
|   marks: crop cross
#csstext
p {
  marks: crop cross;
}

#data
p {
  marks: cross /**/ crop;
}
#cssom
| <p>
|   marks: crop cross

#data
p {
  marks: crop crop;
}
#errors
;2;15;m;CSS syntax error;'marks'
#cssom
| <p>

#data
p {
  marks: crop cross crop;
}
#errors
;2;21;m;CSS syntax error;'marks'
#cssom
| <p>

#data
p {
  marks: crop inherit;
}
#errors
;2;15;m;CSS syntax error;'marks'
#cssom
| <p>

#data
p {
  marks: none;
}
#cssom
| <p>
|   marks: none
#csstext
p {
  marks: none;
}

#data
p {
  marks: none cross;
}
#errors
;2;15;m;CSS syntax error;'marks'
#cssom
| <p>

#data
p {
  marks: crop none;
}
#errors
;2;15;m;CSS syntax error;'marks'
#cssom
| <p>

#data
p {
  marks: inherit;
}
#cssom
| <p>
|   marks: inherit
#csstext
p {
  marks: inherit;
}

#data
p {
  marks: inherit crop;
}
#errors
;2;10;m;CSS syntax error;'marks'
#cssom
| <p>

#data
p {
  page: auto
}
#cssom
| <p>
|   page: auto
#csstext
p {
  page: auto;
}

#data
p {
  page: Auto;
}
#cssom
| <p>
|   page: auto

#data
p {
  page: inherit;
}
#cssom
| <p>
|   page: inherit
#csstext
p {
  page: inherit;
}

#data
p {
  page: InhErit;
}
#cssom
| <p>
|   page: inherit
#csstext
p {
  page: inherit;
}

#data
p {
  page: pageName;
}
#cssom
| <p>
|   page: pageName
#csstext
p {
  page: pageName;
}

#data
p{page: INITIAL}
#cssom
| <p>
|   page: initial

#data
p{page: -MOZ-initial}
#errors
;1;9;m;css:obsolete;-moz-initial
#cssom
| <p>
|   page: initial

#data
p{page: DEFauLt}
#cssom
| <p>
|   page: DEFauLt

#data
p {
  orphans: 3;
}
#cssom
| <p>
|   orphans: 3
#csstext
p {
  orphans: 3;
}

#data
p {
  orphans: +3;
}
#cssom
| <p>
|   orphans: 3
#csstext
p {
  orphans: 3;
}

#data
p {
  orphans: -3;
}
#errors
;2;12;m;css:value:not positive integer
#cssom
| <p>
#csstext
p {
}

#data
p {
  orphans: 0;
}
#errors
;2;12;m;css:value:not positive integer
#cssom
| <p>
#csstext
p {
}

#data
p {
  orphans: +0;
}
#errors
;2;12;m;css:value:not positive integer
#cssom
| <p>
#csstext
p {
}

#data
p {
  orphans: -0;
}
#errors
;2;12;m;css:value:not positive integer
#cssom
| <p>
#csstext
p {
}

#data
p{oprhans:10e4}
#errors
;1;3;m;css:prop:unknown
#cssom
| <p>

#data
p {
  orphans: 000003.000;
}
#errors
;2;12;m;css:value:not positive integer
#cssom
| <p>
#csstext
p {
}

#data
p {
  orphans: inherit;
}
#cssom
| <p>
|   orphans: inherit

#data
p {
  orphans: +inherit;
}
#errors
;2;12;m;css:value:not positive integer
#cssom
| <p>

#data
p {
  widows: 3;
}
#cssom
| <p>
|   widows: 3
#csstext
p {
  widows: 3;
}

#data
p {
  widows: +3;
}
#cssom
| <p>
|   widows: 3
#csstext
p {
  widows: 3;
}

#data
p {
  widows: -3;
}
#errors
;2;11;m;css:value:not positive integer
#cssom
| <p>
#csstext
p {
}

#data
p {
  widows: 0;
}
#errors
;2;11;m;css:value:not positive integer
#cssom
| <p>
#csstext
p {
}

#data
p {
  widows: +0;
}
#errors
;2;11;m;css:value:not positive integer
#cssom
| <p>
#csstext
p {
}

#data
p {
  widows: -0;
}
#errors
;2;11;m;css:value:not positive integer
#cssom
| <p>
#csstext
p {
}

#data
p {
  widows: 000003.000;
}
#errors
;2;11;m;css:value:not positive integer
#cssom
| <p>
#csstext
p {
}

#data
p {
  widows: inherit;
}
#cssom
| <p>
|   widows: inherit

#data
p {
  widows: +inherit;
}
#errors
;2;11;m;css:value:not positive integer
#cssom
| <p>

#data
p {page-break-before:avoid}
#cssom
| <p>
|   page-break-before: avoid

#data
p {page-break-before:always}
#cssom
| <p>
|   page-break-before: always

#data
p {page-break-before:auto}
#cssom
| <p>
|   page-break-before: auto

#data
p {page-break-before:LEFT}
#cssom
| <p>
|   page-break-before: left

#data
p {page-break-before:right}
#cssom
| <p>
|   page-break-before: right

#data
p {page-break-before:page}
#errors
;1;22;m;css:keyword:not allowed
#cssom
| <p>

#data
p {page-break-after:avoid}
#cssom
| <p>
|   page-break-after: avoid

#data
p {page-break-after:always}
#cssom
| <p>
|   page-break-after: always

#data
p {page-break-after:page}
#errors
;1;21;m;css:keyword:not allowed
#cssom
| <p>

#data
p {page-break-after:auto}
#cssom
| <p>
|   page-break-after: auto

#data
p {page-break-after:LEFT}
#cssom
| <p>
|   page-break-after: left

#data
p {page-break-after:right}
#cssom
| <p>
|   page-break-after: right

#data
p {page-break-inside:avoid}
#cssom
| <p>
|   page-break-inside: avoid

#data
p {page-break-inside:always}
#errors
;1;22;m;css:keyword:not allowed
#cssom
| <p>

#data
p {page-break-inside:auto}
#cssom
| <p>
|   page-break-inside: auto

#data
p {page-break-inside:LEFT}
#errors
;1;22;m;css:keyword:not allowed
#cssom
| <p>

#data
p {page-break-inside:right}
#errors
;1;22;m;css:keyword:not allowed
#cssom
| <p>

#data
p {page-break-inside:page}
#errors
;1;22;m;css:keyword:not allowed
#cssom
| <p>
