#data
#result
en

#data
*
#result
en

#data
en,ja
#result
en

#data
ja,en
#result
en

#data escaped
  ja  \u0020
#result
ja

#data
   ja   ,, en
#result
en

#data
   en   ,, ja
#result
en

#data
ja    ,,en
#result
en

#data
en    ,,ja
#result
en

#data
fr    ,,ja
#result
ja

#data
      ja,,en
#result
en

#data
      en,,ja
#result
en

#data
     ja,en
#result
en

#data
,,,,,ja,en
#result
en

#data
ja,en,,,,,
#result
en

#data
en;q=0,ja
#result
ja

#data
en ;   q   = 0   , ja
#result
ja

#data
en ;   q   = 0   , ja ; q = 0
#result
en

#data
en;q=0.1, ja;q=0.2
#result
ja

#data
en;q=0.1, ja;q=0 . 2
#result
en

#data
ja;q=0.1, en;q=0 . 2
#result
ja

#data
en;q=1,ja
#result
en

#data
en;q=0.6,ja;q=0.3
#result
en

#data
en;q=0.006,ja;q=0.003
#result
en

#data
ja;q=0.006,en;q=0.003
#result
ja

#data
en;q=0.0006,ja;q=0.0003
#result
en

#data
ja;q=0.0006,en;q=0.0003
#result
en

#data
en;q="0.006",ja;q=0.003
#result
en

#data
ja;q="0.006",en;q=0.003
#result
ja

#data
ja;q=0.003,en;q="0.006"
#result
en

#data
en;q="0.006",ja;q=0.009
#result
ja

#data
en;q="0.006,ja;q=0.003
#result
en

#data
ja;q="0.006,en;q=0.003
#result
ja

#data
en;q="0.006,ja;q=0.009
#result
en

#data
ja;q="0.006,en;q=0.003"
#result
ja

#data
en;q="0.006,ja;q=0.003"
#result
en

#data
en;q="0.006,ja;q=0.009"
#result
en

#data
en;q="0.006,ja;q=0.009,fr"
#result
en

#data
en;q="0.006"ab,ja;q=0.009
#result
ja

#data
en;q="0.006"ab,ja;q=0.003
#result
en

#data
en;q='0.006',ja;q=0.003
#result
en

#data
ja;q='0.006',en;q=0.003
#result
ja

#data
en;q='0.006',ja;q=0.009
#result
en

#data
en;q=|0.006|,ja;q=0.003
#result
en

#data
ja;q=|0.006|,en;q=0.003
#result
ja

#data
en;q=|0.006|,ja;q=0.009
#result
en

#data
ja;q=|0.006|,en;q=0.009
#result
ja

#data
ja;q=0.009,en;q=|0.006|
#result
en

#data
en ja;q=0.9,ja;q=0.4,en;q=0.3
#result
en

#data
en;q=0.009abc,ja;q=0.003abc
#result
en

#data
ja;q=0.009abc,en;q=0.003abc
#result
ja

#data
ja;q=0.003abc,en;q=0.009abc
#result
en

#data
en;q="0.00\9",ja;q=0.003
#result
ja

#data
ja;q="0.00\9",en;q=0.003
#result
en

#data
ja;qb=0.009,en;qb=0.003
#result
en

#data
ja;qb=0.009;q=0.4,en;qb=0.003;q=0.3
#result
ja

#data
ja;Q=0.009,en;Q=0.003
#result
ja

#data
ja;q=4,en;q=10
#result
en

#data
en;q=4,ja;q=10
#result
en

#data
ja;q=4.004,en;q=10.002
#result
en

#data
ja;q=004,en;q=0.001
#result
en

#data
en;q=004,ja;q=0.001
#result
ja

#data
ja;q=1.004,en;q=1.000
#result
en

#data
ja;q=0.004,en;q=0.004
#result
en

#data
*;q=0
#result
en

#data
fr
#result
en

#data
en-gb
#result
en-gb

#data
en-us
#result
en

#data
ja-jp
#result
ja

#data
en-jp
#result
en

#data
en-gb-x-test
#result
en

#data
ja-x-test
#result
ja